id;min;value;max;scale;checkRange
0;0;1.11;999.99;;0
1;;control4log;;;0
3;0;0;1;;1
4;0;0;0;[EV];1
5;1;1;2;;1
6;0;0;0;[EV];1
7;0;0;1;;1
8;0;0;0;[EV];1
9;;C4L0-YYMM-nnnn-nnnn;;;0
10;;Device type;;;0
11;0;0;1;;1
12;0;0;1;;1
21;0;0;1;;1
22;1;10;60;;1
23;;CPU Temp.;;;0
24;;gradC;;;0
25;0;25;1000;[EV];1
26;-1000000;-10;1000000;;1
27;0;27;1000;[EV];1
28;-1000000;0;1000000;;1
29;0;29;1000;[EV];1
30;-1000000;75;1000000;;1
31;0;31;1000;[EV];1
32;-1000000;85;1000000;;1
51;;control4log;;;0
52;;456852;;;0
53;0;53;1000;[EV];1
54;0;54;1000;[EV];1
55;0;55;1000;[EV];1
56;0;56;1000;[EV];1
101;0.0.0.0;192.168.19.77;255.255.255.255;;0
102;0.0.0.0;255.255.255.0;255.255.255.255;;0
103;0.0.0.0;192.168.19.1;255.255.255.255;;0
104;1;1;7;;1
105;1;1;1;;1
111;0;10000;65535;;1
112;0;2;2;;1
113;0;2;2;;1
114;0;1;1;;1
115;0;1;1;;1
116;0;2;2;;1
117;0;1;1;;1
118;0;2;2;;1
119;0;1;1;;1
120;0;1;1;;1
121;0;1;1;;1
122;0;2;2;;1
131;0;587;65535;;1
132;0;0;1;[EV];1
133;;;;;0
134;;;;;0
135;;;;;0
136;1;1;1;;1
137;;;;;0
138;;;;;0
139;0;0;2;;1
140;0;140;1000;;1
141;0;141;1000;[EV];1
145;0;123;65535;;1
146;;0.ch.pool.ntp.org;;;0
151;0;0;65535;;1
152;;;;;0
153;;;;;0
154;;;;;0
155;;;;;0
156;0;0;4;;1
157;0;0;4;;1
158;0;0;2;;1
159;0;0;2;;1
160;0;0;1;;1
201;0.0.0.0;192.168.78.78;255.255.255.255;;0
202;0.0.0.0;255.255.255.0;255.255.255.255;;0
203;0.0.0.0;192.168.78.1;255.255.255.255;;0
204;1;1;3;;1
205;1;1;1;;1
211;0;10000;65535;;1
212;0;2;2;;1
213;0;2;2;;1
214;0;1;1;;1
215;0;1;1;;1
216;0;2;2;;1
217;0;1;1;;1
218;0;2;2;;1
219;0;1;1;;1
220;0;1;1;;1
221;0;1;1;;1
222;0;2;2;;1
231;0;0;65535;;1
241;0;0;65535;;1
251;0.0.0.0;192.168.92.92;255.255.255.255;;0
252;0.0.0.0;255.255.255.0;255.255.255.255;;0
253;0.0.0.0;192.168.92.1;255.255.255.255;;0
254;1;1;3;;1
255;1;1;1;;1
261;0;10000;65535;;1
262;0;2;2;;1
263;0;2;2;;1
264;0;1;1;;1
265;0;1;1;;1
266;0;2;2;;1
267;0;1;1;;1
268;0;2;2;;1
269;0;1;1;;1
270;0;1;1;;1
271;0;1;1;;1
272;0;2;2;;1
281;0;0;65535;;1
291;0;0;65535;;1
300;0;1;1;;1
301;0;0;2;;1
302;0;18000;24000;[mV]/[uA];1
303;0;10000;24000;[mV]/[uA];1
304;0;0;1;;1
305;;DI1;;;0
306;;DI1;;;0
307;1;60;65535;[min];1
308;0;308;1000;[EV];1
309;0;309;1000;[EV];1
311;0;0;2;;1
312;0;18000;24000;[mV]/[uA];1
313;0;10000;24000;[mV]/[uA];1
314;0;0;1;;1
315;;DI2;;;0
316;;DI2;;;0
317;1;60;65535;[min];1
318;0;318;1000;[EV];1
319;0;319;1000;[EV];1
321;0;0;2;;1
322;0;18000;24000;[mV]/[uA];1
323;0;10000;24000;[mV]/[uA];1
324;0;0;1;;1
325;;DI3;;;0
326;;DI3;;;0
327;1;60;65535;[min];1
328;0;328;1000;[EV];1
329;0;329;1000;[EV];1
331;0;0;2;;1
332;0;18000;24000;[mV]/[uA];1
333;0;10000;24000;[mV]/[uA];1
334;0;0;1;;1
335;;DI4;;;0
336;;bar g;;;0
337;1;60;65535;[min];1
338;0;338;1000;[EV];1
339;0;339;1000;[EV];1
401;0;0;5;;1
402;0;0;1;;1
403;;DO1;;;0
404;;bar g;;;0
405;1;2;60;[s];1
406;0;0;4;;1
407;0;407;1000;[EV];1
408;0;408;1000;[EV];1
411;0;0;5;;1
412;0;0;1;;1
413;;DO2;;;0
414;;bar g;;;0
415;1;2;60;[s];1
416;0;0;4;;1
417;0;417;1000;[EV];1
418;0;418;1000;[EV];1
421;0;0;5;;1
422;0;0;1;;1
423;;DO3;;;0
424;;bar g;;;0
425;1;2;60;[s];1
426;0;0;4;;1
427;0;427;1000;[EV];1
428;0;428;1000;[EV];1
431;0;0;5;;1
432;0;0;1;;1
433;;DO4;;;0
434;;bar g;;;0
435;1;2;60;[s];1
436;0;0;4;;1
437;0;437;1000;[EV];1
438;0;438;1000;[EV];1
501;0;0;1;;1
502;0;0;1;;1
503;0;0;20000;[mV]/[uA];1
504;0;10000;20000;[mV]/[uA];1
505;0;1;1;;1
506;0;5;600;[0.1s];1
507;;AI1;;;0
508;;bar g;;;0
509;0;400;1000000;;1
510;-1000000;0;1000000;;1
511;1;3600;86400;[s];1
512;0;512;1000;[EV];1
513;1;4;6;;1
514;-1000000;0;1000000;;1
515;0;515;1000;[EV];1
516;1;4;6;;1
517;-1000000;0;1000000;;1
518;0;518;1000;[EV];1
519;1;3;6;;1
520;-1000000;0;1000000;;1
521;0;521;1000;[EV];1
522;1;3;6;;1
523;-1000000;0;1000000;;1
551;0;0;1;;1
552;0;0;1;;1
553;0;0;20000;[mV]/[uA];1
554;0;10000;20000;[mV]/[uA];1
555;0;1;1;;1
556;0;5;600;[0.1s];1
557;;AI2;;;0
558;;bar g;;;0
559;0;400;1000000;;1
560;-1000000;0;1000000;;1
561;1;3600;86400;[s];1
562;0;562;1000;[EV];1
563;1;4;6;;1
564;-1000000;0;1000000;;1
565;0;565;1000;[EV];1
566;1;4;6;;1
567;-1000000;0;1000000;;1
568;0;568;1000;[EV];1
569;1;3;6;;1
570;-1000000;0;1000000;;1
571;0;571;1000;[EV];1
572;1;3;6;;1
573;-1000000;0;1000000;;1
601;0;0;1;;1
602;0;0;1;;1
603;0;0;20000;[mV]/[uA];1
604;0;10000;20000;[mV]/[uA];1
605;0;1;1;;1
606;0;5;600;[0.1s];1
607;;AO1;;;0
608;;bar g;;;0
609;0;400;1000000;;1
610;-1000000;0;1000000;;1
611;1;3600;86400;[s];1
612;1;1;6;;1
613;0;613;1000;[EV];1
614;1;4;6;;1
615;-1000000;0;1000000;;1
616;0;616;1000;[EV];1
617;1;4;6;;1
618;-1000000;0;1000000;;1
619;0;619;1000;[EV];1
620;1;3;6;;1
621;-1000000;0;1000000;;1
622;0;622;1000;[EV];1
623;1;3;6;;1
624;-1000000;0;1000000;;1
631;1;1000;360000;[0.01s];1
632;1;1;2;;1
633;1;1;1000000;;1
634;1;1;1000000;;1
635;0;0;1;;1
636;0;0;10000;[0.01%];1
637;0;10000;10000;[0.01%];1
638;1;1000;360000;[0.01s];1
639;0;0;10000;[0.01%];1
640;0;0;10000;[0.01%];1
641;0;641;1000;[EV];1
642;1;4;6;;1
643;-1000000;0;1000000;;1
644;0;644;1000;[EV];1
645;1;3;6;;1
646;-1000000;0;1000000;;1
651;0;0;1;;1
652;0;0;1;;1
653;0;0;20000;[mV]/[uA];1
654;0;10000;20000;[mV]/[uA];1
655;0;1;1;;1
656;0;5;600;[0.1s];1
657;;AO2;;;0
658;;bar g;;;0
659;0;400;1000000;;1
660;-1000000;0;1000000;;1
661;1;3600;86400;[s];1
662;1;1;6;;1
663;0;663;1000;[EV];1
664;1;4;6;;1
665;-1000000;0;1000000;;1
666;0;666;1000;[EV];1
667;1;4;6;;1
668;-1000000;0;1000000;;1
669;0;669;1000;[EV];1
670;1;3;6;;1
671;-1000000;0;1000000;;1
672;0;672;1000;[EV];1
673;1;3;6;;1
674;-1000000;0;1000000;;1
681;1;1000;360000;[0.01s];1
682;1;1;2;;1
683;1;1;1000000;;1
684;1;1;1000000;;1
685;0;0;1;;1
686;0;0;10000;[0.01%];1
687;0;10000;10000;[0.01%];1
688;1;1000;360000;[0.01s];1
689;0;0;10000;[0.01%];1
690;0;0;10000;[0.01%];1
691;0;691;1000;[EV];1
692;1;4;6;;1
693;-1000000;0;1000000;;1
694;0;694;1000;[EV];1
695;1;3;6;;1
696;-1000000;0;1000000;;1
701;0;0;2;;1
702;0;0;2;;1
703;;VA9;;;0
704;;h;;;0
705;0;1;12;;1
706;1;1;2;;1
707;-1000000;0;1000000;;1
708;-1000000;0;1000000;;1
709;0;709;1000;[EV];1
710;1;4;6;;1
711;-1000000;0;1000000;;1
712;0;712;1000;[EV];1
713;1;4;6;;1
714;-1000000;0;1000000;;1
715;0;715;1000;[EV];1
716;1;3;6;;1
717;-1000000;0;1000000;;1
718;0;718;1000;[EV];1
719;1;3;6;;1
720;-1000000;0;1000000;;1
721;0;0;2;;1
722;0;0;2;;1
723;;VA10;;;0
724;;h;;;0
725;0;1;12;;1
726;1;1;2;;1
727;-1000000;0;1000000;;1
728;-1000000;0;1000000;;1
729;0;729;1000;[EV];1
730;1;4;6;;1
731;-1000000;0;1000000;;1
732;0;732;1000;[EV];1
733;1;4;6;;1
734;-1000000;0;1000000;;1
735;0;735;1000;[EV];1
736;1;3;6;;1
737;-1000000;0;1000000;;1
738;0;738;1000;[EV];1
739;1;3;6;;1
740;-1000000;0;1000000;;1
741;0;0;2;;1
742;0;0;2;;1
743;;VA11;;;0
744;;h;;;0
745;0;1;12;;1
746;1;1;2;;1
747;-1000000;0;1000000;;1
748;-1000000;0;1000000;;1
749;0;749;1000;[EV];1
750;1;4;6;;1
751;-1000000;0;1000000;;1
752;0;752;1000;[EV];1
753;1;4;6;;1
754;-1000000;0;1000000;;1
755;0;755;1000;[EV];1
756;1;3;6;;1
757;-1000000;0;1000000;;1
758;0;758;1000;[EV];1
759;1;3;6;;1
760;-1000000;0;1000000;;1
761;0;0;2;;1
762;0;0;2;;1
763;;VA12;;;0
764;;h;;;0
765;0;1;12;;1
766;1;1;2;;1
767;-1000000;0;1000000;;1
768;-1000000;0;1000000;;1
769;0;769;1000;[EV];1
770;1;4;6;;1
771;-1000000;0;1000000;;1
772;0;772;1000;[EV];1
773;1;4;6;;1
774;-1000000;0;1000000;;1
775;0;775;1000;[EV];1
776;1;3;6;;1
777;-1000000;0;1000000;;1
778;0;778;1000;[EV];1
779;1;3;6;;1
780;-1000000;0;1000000;;1
781;0;0;2;;1
782;0;0;2;;1
783;;VA13;;;0
784;;h;;;0
785;0;1;12;;1
786;1;1;2;;1
787;-1000000;0;1000000;;1
788;-1000000;0;1000000;;1
789;0;789;1000;[EV];1
790;1;4;6;;1
791;-1000000;0;1000000;;1
792;0;792;1000;[EV];1
793;1;4;6;;1
794;-1000000;0;1000000;;1
795;0;795;1000;[EV];1
796;1;3;6;;1
797;-1000000;0;1000000;;1
798;0;798;1000;[EV];1
799;1;3;6;;1
800;-1000000;0;1000000;;1
801;0;0;2;;1
802;0;0;2;;1
803;;VA14;;;0
804;;h;;;0
805;0;1;12;;1
806;1;1;2;;1
807;-1000000;0;1000000;;1
808;-1000000;0;1000000;;1
809;0;809;1000;[EV];1
810;1;4;6;;1
811;-1000000;0;1000000;;1
812;0;812;1000;[EV];1
813;1;4;6;;1
814;-1000000;0;1000000;;1
815;0;815;1000;[EV];1
816;1;3;6;;1
817;-1000000;0;1000000;;1
818;0;818;1000;[EV];1
819;1;3;6;;1
820;-1000000;0;1000000;;1
821;0;0;2;;1
822;0;0;2;;1
823;;VA15;;;0
824;;h;;;0
825;0;1;12;;1
826;1;1;2;;1
827;-1000000;0;1000000;;1
828;-1000000;0;1000000;;1
829;0;829;1000;[EV];1
830;1;4;6;;1
831;-1000000;0;1000000;;1
832;0;832;1000;[EV];1
833;1;4;6;;1
834;-1000000;0;1000000;;1
835;0;835;1000;[EV];1
836;1;3;6;;1
837;-1000000;0;1000000;;1
838;0;838;1000;[EV];1
839;1;3;6;;1
840;-1000000;0;1000000;;1
841;0;0;2;;1
842;0;0;2;;1
843;;VA16;;;0
844;;h;;;0
845;0;1;12;;1
846;1;1;2;;1
847;-1000000;0;1000000;;1
848;-1000000;0;1000000;;1
849;0;849;1000;[EV];1
850;1;4;6;;1
851;-1000000;0;1000000;;1
852;0;852;1000;[EV];1
853;1;4;6;;1
854;-1000000;0;1000000;;1
855;0;855;1000;[EV];1
856;1;3;6;;1
857;-1000000;0;1000000;;1
858;0;858;1000;[EV];1
859;1;3;6;;1
860;-1000000;0;1000000;;1
